Tools for Working with Darwin Core Taxon Data in R • dwctaxon
…
OR

# install.packages("remotes")
remotes::install_github("ropensci/dwctaxon")

Usage

First, load packages and a dataset to work with:

library(tibble) # recommended for pretty printing of tibbles
library(dwctaxon)

dct_filmies
#> # A tibble: 2,451 × 5
#>    taxonID  acceptedNameUsageID taxonomicStatus taxonRank scientificName                            
#>    <chr>    <chr>               <chr>           <chr>     <chr>                                     
#>  1 54115096 <NA>                accepted        species   Cephalomanes atrovirens Presl             
#>  2 54133783 54115097            synonym         species   Trichomanes crassum Copel.                
#>  3 54115097 <NA>                accepted        species   Cephalomanes crassum (Copel.) M. G. Price 
#>  4 54133784 54115098            synonym         species   Trichomanes densinervium Copel.           
#>  5 54115098 <NA>                accepted        species   Cephalomanes densinervium (Copel.) Copel. 
#>  6 54133786 54115100            synonym         species   Cephalomanes curvatum (J. Sm.) V. D. Bosch
#>  7 54133787 54115100            synonym         species   Cephalomanes javanica (Bl.) V. D. Bosch   
#>  8 54133788 54115100            synonym         species   Cephalomanes oblongifolium Presl          
#>  9 54133789 54115100            synonym         species   Cephalomanes zollingeri V. D. Bosch       
#> 10 54133790 54115100            synonym         species   Lacostea javanica (Bl.) Prantl            
#> # ℹ 2,441 more rows
…
Piping

All the functions in dwctaxon take a dataframe as their first argument and return a dataframe by default, so they are “pipe-friendly” and can be chained together:

dct_filmies |>
  dct_modify_row(
    taxonID = "54133783",
    taxonomicStatus = "accepted"
  ) |>
  dct_add_row(
    scientificName = "Hymenophyllum dwctaxonense Nitta",
    taxonomicStatus = "accepted"
  ) |>
  dct_validate()
#> # A tibble: 2,452 × 6
#>    taxonID  acceptedNameUsageID taxonomicStatus taxonRank scientificName                             modified                  
#>    <chr>    <chr>               <chr>           <chr>     <chr>                                      <chr>                     
#>  1 54115096 <NA>                accepted        species   Cephalomanes atrovirens Presl              <NA>                      
#>  2 54133783 <NA>                accepted        species   Trichomanes crassum Copel.                 2024-02-02 20:11:18.650982
#>  3 54115097 <NA>                accepted        species   Cephalomanes crassum (Copel.) M. G. Price  <NA>                      
#>  4 54133784 54115098            synonym         species   Trichomanes densinervium Copel.            <NA>                      
#>  5 54115098 <NA>                accepted        species   Cephalomanes densinervium (Copel.) Copel.  <NA>                      
#>  6 54133786 54115100            synonym         species   Cephalomanes curvatum (J. Sm.) V. D. Bosch <NA>                      
#>  7 54133787 54115100            synonym         species   Cephalomanes javanica (Bl.) V. D. Bosch    <NA>                      
#>  8 54133788 54115100            synonym         species   Cephalomanes oblongifolium Presl           <NA>                      
#>  9 54133789 54115100            synonym         species   Cephalomanes zollingeri V. D. Bosch        <NA>                      
#> 10 54133790 54115100            synonym         species   Lacostea javanica (Bl.) Prantl             <NA>                      
#> # ℹ 2,442 more rows
…
