Validate a taxonomic database — dct_validate • dwctaxon
…
Default settings of all arguments can be modified with dct_options() (see
Examples).

Most columns are expected to be vectors of class character, but this is not
checked for all columns. Columns (DwC terms) with names including 'ID', for
example 'taxonID', may be character, numeric, or integer.

    Examples

# The example dataset dct_filmies is already correctly formatted and passes
# validation
dct_validate(dct_filmies)
#> # A tibble: 2,451 × 5
#>    taxonID  acceptedNameUsageID taxonomicStatus taxonRank scientificName        
#>    <chr>    <chr>               <chr>           <chr>     <chr>                 
#>  1 54115096 NA                  accepted        species   Cephalomanes atrovire…
#>  2 54133783 54115097            synonym         species   Trichomanes crassum C…
#>  3 54115097 NA                  accepted        species   Cephalomanes crassum …
#>  4 54133784 54115098            synonym         species   Trichomanes densinerv…
#>  5 54115098 NA                  accepted        species   Cephalomanes densiner…
#>  6 54133786 54115100            synonym         species   Cephalomanes curvatum…
#>  7 54133787 54115100            synonym         species   Cephalomanes javanica…
#>  8 54133788 54115100            synonym         species   Cephalomanes oblongif…
#>  9 54133789 54115100            synonym         species   Cephalomanes zollinge…
#> 10 54133790 54115100            synonym         species   Lacostea javanica (Bl…
#> # ℹ 2,441 more rows
…
# The incorrectly formatted data won't pass
try(
  dct_validate(bad_dat)
)
#> Error : check_sci_name failed
#>    scientificName detected with duplicated value
#>    Bad scientificName: Trichomanes crassum Copel., Trichomanes crassum Copel.
#> 

# It will pass if we allow duplicated scientific names though
dct_validate(bad_dat, check_sci_name = FALSE)
#> # A tibble: 2,451 × 5
#>    taxonID  acceptedNameUsageID taxonomicStatus taxonRank scientificName        
#>    <chr>    <chr>               <chr>           <chr>     <chr>                 
#>  1 54115096 NA                  accepted        species   Trichomanes crassum C…
#>  2 54133783 54115097            synonym         species   Trichomanes crassum C…
#>  3 54115097 NA                  accepted        species   Cephalomanes crassum …
#>  4 54133784 54115098            synonym         species   Trichomanes densinerv…
#>  5 54115098 NA                  accepted        species   Cephalomanes densiner…
#>  6 54133786 54115100            synonym         species   Cephalomanes curvatum…
#>  7 54133787 54115100            synonym         species   Cephalomanes javanica…
#>  8 54133788 54115100            synonym         species   Cephalomanes oblongif…
#>  9 54133789 54115100            synonym         species   Cephalomanes zollinge…
#> 10 54133790 54115100            synonym         species   Lacostea javanica (Bl…
#> # ℹ 2,441 more rows

# Individual checks can also be turned or off with dct_options()

# First save the current settings before making any changes
old_settings <- dct_options()

# Let's allow duplicated scientific names by default
dct_options(check_sci_name = FALSE)

# The data passes validation as before, but we don't have to specify
# `check_sci_name = FALSE` in the function call
dct_validate(bad_dat)
#> # A tibble: 2,451 × 5
#>    taxonID  acceptedNameUsageID taxonomicStatus taxonRank scientificName        
#>    <chr>    <chr>               <chr>           <chr>     <chr>                 
#>  1 54115096 NA                  accepted        species   Trichomanes crassum C…
#>  2 54133783 54115097            synonym         species   Trichomanes crassum C…
#>  3 54115097 NA                  accepted        species   Cephalomanes crassum …
#>  4 54133784 54115098            synonym         species   Trichomanes densinerv…
#>  5 54115098 NA                  accepted        species   Cephalomanes densiner…
#>  6 54133786 54115100            synonym         species   Cephalomanes curvatum…
#>  7 54133787 54115100            synonym         species   Cephalomanes javanica…
#>  8 54133788 54115100            synonym         species   Cephalomanes oblongif…
#>  9 54133789 54115100            synonym         species   Cephalomanes zollinge…
#> 10 54133790 54115100            synonym         species   Lacostea javanica (Bl…
#> # ℹ 2,441 more rows
…
