Darwin Core Taxon terms — dct_terms • dwctaxon
…
    Source

    https://dwc.tdwg.org/terms/#taxon

    Details

    Modified from data downloaded from TDWG Darwin Core
under the Creative Commons Attribution (CC BY) 4.0
license.

    Examples

dct_terms
#> # A tibble: 47 × 2
#>    group term               
#>  * <chr> <chr>              
#>  1 taxon taxonID            
#>  2 taxon scientificNameID   
#>  3 taxon acceptedNameUsageID
#>  4 taxon parentNameUsageID  
#>  5 taxon originalNameUsageID
#>  6 taxon nameAccordingToID  
#>  7 taxon namePublishedInID  
#>  8 taxon taxonConceptID     
#>  9 taxon scientificName     
#> 10 taxon acceptedNameUsage  
#> # ℹ 37 more rows
…
